[
  {
    "WorkflowName": "InsuranceProduct",
    "Rules": [
      {
        "RuleName": "ShowPlanHemaya",
        "SuccessEvent": "HEMAYA",
        "ErrorMessage": "One or more adjust rules failed.",
        "ErrorType": "Error",
        "Operator": "AndAlso",
        "Rules": [
          {
            "RuleName": "BaseCondition",
            "ErrorMessage": "One or more adjust rules failed.",
            "ErrorType": "Error",
            "RuleExpressionType": "LambdaExpression",
            "Expression": "input1.Residency != \"\" AND input1.Name != \"\" AND input1.mobile_Number >=11111111 AND input1.mobile_Number <=99999999 AND input1.Email_ID !=\"\" AND input1.gender != \"\""

          },
          {
            "RuleName": "AndHasDependency",
            "ErrorMessage": "One or more adjust rules failed.",
            "ErrorType": "Error",
            "RuleExpressionType": "LambdaExpression",
            "Expression": "input1.isDependants_Present==\"No\" OR input1.isDependants_Present==\"Yes\" AND input1.Dependants >=0"
          },
          {
            "RuleName": "AndHasCurrency_AndNetIncome",
            "ErrorMessage": "One or more adjust rules failed.",
            "ErrorType": "Error",
            "RuleExpressionType": "LambdaExpression",
            "Expression": "input1.currency.contains(\"BD\") AND input1.net_Income<125 OR input1.net_Income>125 OR input1.currency.contains(\"KWD\") AND input1.net_Income<100 OR input1.net_Income>100 OR input1.currency.contains(\"USD\") AND input1.net_Income<330 OR input1.net_Income>330"
          },
          {
            "RuleName": "AndHasAgewithin21_To60",
            "ErrorMessage": "One or more adjust rules failed.",
            "ErrorType": "Error",
            "RuleExpressionType": "LambdaExpression",
            "Expression": "input1.age >=21 AND input1.age <=60"
          },
          {
            "RuleName": "AndOtherConditions",
            "ErrorMessage": "One or more adjust rules failed.",
            "ErrorType": "Error",
            "RuleExpressionType": "LambdaExpression",
            "Expression": "input1.plan_purpose1.contains(\"Family Protection\")  OR input1.plan_purpose2.contains(\"Family Protection\") OR input1.plan_purpose3.contains(\"Family Protection\")"
          }
        ]
      },
      {
        "RuleName": "ShowPlanRetirement",
        "SuccessEvent": "RETIREMENT",
        "ErrorMessage": "One or more adjust rules failed.",
        "ErrorType": "Error",
        "Operator": "AndAlso",
        "Rules": [
          {
            "RuleName": "BaseCondition",
            "ErrorMessage": "One or more adjust rules failed.",
            "ErrorType": "Error",
            "RuleExpressionType": "LambdaExpression",
            "Expression": "input1.Residency != \"\" AND input1.Name != \"\" AND input1.mobile_Number >=11111111 AND input1.mobile_Number <=99999999 AND input1.Email_ID !=\"\" AND input1.gender != \"\""

          },
          {
            "RuleName": "AndHasDependency",
            "ErrorMessage": "One or more adjust rules failed.",
            "ErrorType": "Error",
            "RuleExpressionType": "LambdaExpression",
            "Expression": "input1.isDependants_Present==\"No\" OR input1.isDependants_Present==\"Yes\" AND input1.Dependants >=0"
          },
          {
            "RuleName": "AndHasCurrency_AndNetIncome",
            "ErrorMessage": "One or more adjust rules failed.",
            "ErrorType": "Error",
            "RuleExpressionType": "LambdaExpression",
            "Expression": "input1.currency.contains(\"BD\") AND input1.net_Income<125  OR input1.currency.contains(\"KWD\") AND input1.net_Income<100  OR input1.currency.contains(\"USD\") AND input1.net_Income<330"
          },
          {
            "RuleName": "AndHasAgewithin21_To60",
            "ErrorMessage": "One or more adjust rules failed.",
            "ErrorType": "Error",
            "RuleExpressionType": "LambdaExpression",
            "Expression": "input1.age >=21 AND input1.age <=60"
          },
          {
            "RuleName": "AndOtherConditions",
            "ErrorMessage": "One or more adjust rules failed.",
            "ErrorType": "Error",
            "RuleExpressionType": "LambdaExpression",
            "Expression": "input1.plan_purpose1.contains(\"Retirement Planning\") OR input1.plan_purpose2.contains(\"Retirement Planning\") OR input1.plan_purpose3.contains(\"Retirement Planning\")"
          }
        ]
      },
      {
        "RuleName": "ShowPlanForCriticalIllness",
        "SuccessEvent": "HEMAYA, WEQAYA, CRITICAL_ILLNESS, CANCER_CARE",
        "ErrorMessage": "One or more adjust rules failed.",
        "ErrorType": "Error",
        "Operator": "AndAlso",
        "Rules": [
          {
            "RuleName": "BaseCondition",
            "ErrorMessage": "One or more adjust rules failed.",
            "ErrorType": "Error",
            "RuleExpressionType": "LambdaExpression",
            "Expression": "input1.Residency != \"\" AND input1.Name != \"\" AND input1.mobile_Number >=11111111 AND input1.mobile_Number <=99999999 AND input1.Email_ID !=\"\" AND input1.gender != \"\""

          },
          {
            "RuleName": "AndHasDependency",
            "ErrorMessage": "One or more adjust rules failed.",
            "ErrorType": "Error",
            "RuleExpressionType": "LambdaExpression",
            "Expression": "input1.isDependants_Present==\"No\" OR input1.isDependants_Present==\"Yes\" AND input1.Dependants >=0"
          },
          {
            "RuleName": "AndHasCurrency_AndNetIncome",
            "ErrorMessage": "One or more adjust rules failed.",
            "ErrorType": "Error",
            "RuleExpressionType": "LambdaExpression",
            "Expression": "input1.currency.contains(\"BD\") AND input1.net_Income<125 OR input1.net_Income>125 OR input1.currency.contains(\"KWD\") AND input1.net_Income<100 OR input1.net_Income>100 OR input1.currency.contains(\"USD\") AND input1.net_Income<330 OR input1.net_Income>330"
          },
          {
            "RuleName": "AndHasAgewithin21_To59",
            "ErrorMessage": "One or more adjust rules failed.",
            "ErrorType": "Error",
            "RuleExpressionType": "LambdaExpression",
            "Expression": "input1.age >=21 AND input1.age <=59"
          },
          {
            "RuleName": "AndOtherConditions",
            "ErrorMessage": "One or more adjust rules failed.",
            "ErrorType": "Error",
            "RuleExpressionType": "LambdaExpression",
            "Expression": "input1.plan_purpose1.contains(\"Critical Illness\") OR input1.plan_purpose2.contains(\"Critical Illness\") OR input1.plan_purpose3.contains(\"Critical Illness\")"
          }
        ]
      }
    ]
  }
]
